
…………………………………………………………………………
名字：五条亘　种族：人类　等级：１１
经验值：１１２８　持有ＤＰ：１１２８
称号：餓鬼道的救济者

　　　异界的破坏者(１)、击杀异界之主(１)

【介绍】

　某省庁某局某地区事务所的国家公务员。在职场上性格较为温和敦厚，可内心其实积累了相当多的压力。
…………………………………………………………………………
Ｎｏ．１
名字：神乐　种族：皮克西　等级：１１
经验值：１１２８　技能点数：６
ＨＰ：１６　 ＭＰ：３７
技能：探知、雷魔法（初级）、治癒（初级）、補助（初级）

【介绍】

　从魔界而来，由概念上形成的存在。性格总是精神开朗。
　以探知能力、攻击与回復这种万能性为豪，也能作为聊天对象。在扭蛋中一定是超稀有存在。
…………………………………………………………………………

